^C:\USERS\小川　賢太\DESKTOP\PROGURAM\GAMEPROG\DEBUG\GAMEPROG_MANIFEST.RC
/nologo /fo"Debug\GameProg.exe.embed.manifest.res" Debug\GameProg_manifest.rc /nologo /fo"Debug\GameProg.exe.embed.manifest.res" C:\USERS\小川　賢太\DESKTOP\PROGURAM\GAMEPROG\DEBUG\GAMEPROG_MANIFEST.RC
^C:\USERS\小川　賢太\DESKTOP\PUROGURAMU まとめ\PROGURAM\GAMEPROG\DEBUG\GAMEPROG_MANIFEST.RC
/nologo /fo"Debug\GameProg.exe.embed.manifest.res" Debug\GameProg_manifest.rc /nologo /fo"Debug\GameProg.exe.embed.manifest.res" C:\USERS\小川　賢太\DESKTOP\PUROGURAMU まとめ\PROGURAM\GAMEPROG\DEBUG\GAMEPROG_MANIFEST.RC
^C:\USERS\小川　賢太\DESKTOP\PUROGURAMU まとめ\MENYU-\GAMEPROG\DEBUG\GAMEPROG_MANIFEST.RC
/nologo /fo"Debug\GameProg.exe.embed.manifest.res" Debug\GameProg_manifest.rc /nologo /fo"Debug\GameProg.exe.embed.manifest.res" C:\USERS\小川　賢太\DESKTOP\PUROGURAMU まとめ\MENYU-\GAMEPROG\DEBUG\GAMEPROG_MANIFEST.RC
^C:\USERS\小川　賢太\DESKTOP\PUROGURAMU まとめ\MENYU-\TETORIS\DEBUG\GAMEPROG_MANIFEST.RC
/nologo /fo"Debug\GameProg.exe.embed.manifest.res" Debug\GameProg_manifest.rc /nologo /fo"Debug\GameProg.exe.embed.manifest.res" C:\USERS\小川　賢太\DESKTOP\PUROGURAMU まとめ\MENYU-\TETORIS\DEBUG\GAMEPROG_MANIFEST.RC
^C:\USERS\小川　賢太\DESKTOP\PUROGURAMU まとめ\依頼\GAMEPROG\DEBUG\GAMEPROG_MANIFEST.RC
/nologo /fo"Debug\GameProg.exe.embed.manifest.res" Debug\GameProg_manifest.rc /nologo /fo"Debug\GameProg.exe.embed.manifest.res" C:\USERS\小川　賢太\DESKTOP\PUROGURAMU まとめ\依頼\GAMEPROG\DEBUG\GAMEPROG_MANIFEST.RC
^C:\USERS\T12021\DESKTOP\依頼2P\GAMEPROG\DEBUG\GAMEPROG_MANIFEST.RC
/nologo /fo"Debug\GameProg.exe.embed.manifest.res" Debug\GameProg_manifest.rc /nologo /fo"Debug\GameProg.exe.embed.manifest.res" C:\USERS\T12021\DESKTOP\依頼2P\GAMEPROG\DEBUG\GAMEPROG_MANIFEST.RC
^C:\USERS\T12021\DESKTOP\プログラム\依頼2P\GAMEPROG\DEBUG\GAMEPROG_MANIFEST.RC
/nologo /fo"Debug\GameProg.exe.embed.manifest.res" Debug\GameProg_manifest.rc /nologo /fo"Debug\GameProg.exe.embed.manifest.res" C:\USERS\T12021\DESKTOP\プログラム\依頼2P\GAMEPROG\DEBUG\GAMEPROG_MANIFEST.RC
