^C:\USERS\小川　賢太\DESKTOP\PUROGURAMU まとめ\MENYU-\TETORIS\RELEASE\2P.OBJ|C:\USERS\小川　賢太\DESKTOP\PUROGURAMU まとめ\MENYU-\TETORIS\RELEASE\SWITCH_HYOUZI.OBJ|C:\USERS\小川　賢太\DESKTOP\PUROGURAMU まとめ\MENYU-\TETORIS\RELEASE\TEST.OBJ
/ERRORREPORT:PROMPT /OUT:"C:\Users\小川　賢太\Desktop\puroguramu まとめ\menyu-\tetoris\Release\GameProg.exe" /INCREMENTAL:NO /NOLOGO /LIBPATH:./DxLib/ kernel32.lib user32.lib gdi32.lib winspool.lib comdlg32.lib advapi32.lib shell32.lib ole32.lib oleaut32.lib uuid.lib odbc32.lib odbccp32.lib /MANIFEST /ManifestFile:"Release\GameProg.exe.intermediate.manifest" /MANIFESTUAC:"level='asInvoker' uiAccess='false'" /DEBUG /PDB:"C:\Users\小川　賢太\Desktop\puroguramu まとめ\menyu-\tetoris\Release\GameProg.pdb" /SUBSYSTEM:WINDOWS /OPT:REF /OPT:ICF /LTCG /TLBID:1 /DYNAMICBASE /NXCOMPAT /IMPLIB:"C:\Users\小川　賢太\Desktop\puroguramu まとめ\menyu-\tetoris\Release\GameProg.lib" /MACHINE:X86 Release\2p.obj
Release\switch_hyouzi.obj
Release\test.obj
^C:\USERS\小川　賢太\DESKTOP\PUROGURAMU まとめ\依頼\GAMEPROG\RELEASE\2P.OBJ|C:\USERS\小川　賢太\DESKTOP\PUROGURAMU まとめ\依頼\GAMEPROG\RELEASE\KIHON.OBJ|C:\USERS\小川　賢太\DESKTOP\PUROGURAMU まとめ\依頼\GAMEPROG\RELEASE\MENYU-.OBJ|C:\USERS\小川　賢太\DESKTOP\PUROGURAMU まとめ\依頼\GAMEPROG\RELEASE\SWITCH_HYOUZI.OBJ|C:\USERS\小川　賢太\DESKTOP\PUROGURAMU まとめ\依頼\GAMEPROG\RELEASE\TEST.OBJ
/ERRORREPORT:PROMPT /OUT:"C:\Users\小川　賢太\Desktop\puroguramu まとめ\依頼\Gameprog\Release\GameProg.exe" /INCREMENTAL:NO /NOLOGO /LIBPATH:./DxLib/ kernel32.lib user32.lib gdi32.lib winspool.lib comdlg32.lib advapi32.lib shell32.lib ole32.lib oleaut32.lib uuid.lib odbc32.lib odbccp32.lib /MANIFEST /ManifestFile:"Release\GameProg.exe.intermediate.manifest" /MANIFESTUAC:"level='asInvoker' uiAccess='false'" /DEBUG /PDB:"C:\Users\小川　賢太\Desktop\puroguramu まとめ\依頼\Gameprog\Release\GameProg.pdb" /SUBSYSTEM:WINDOWS /OPT:REF /OPT:ICF /LTCG /TLBID:1 /DYNAMICBASE /NXCOMPAT /IMPLIB:"C:\Users\小川　賢太\Desktop\puroguramu まとめ\依頼\Gameprog\Release\GameProg.lib" /MACHINE:X86 Release\2p.obj
Release\kihon.obj
"Release\menyu-.obj"
Release\switch_hyouzi.obj
Release\test.obj
