^C:\USERS\小川　賢太\DESKTOP\PUROGURAMU まとめ\MENYU-\TETORIS\RELEASE\2P.OBJ|C:\USERS\小川　賢太\DESKTOP\PUROGURAMU まとめ\MENYU-\TETORIS\RELEASE\SWITCH_HYOUZI.OBJ|C:\USERS\小川　賢太\DESKTOP\PUROGURAMU まとめ\MENYU-\TETORIS\RELEASE\TEST.OBJ
C:\USERS\小川　賢太\DESKTOP\PUROGURAMU まとめ\MENYU-\TETORIS\RELEASE\GAMEPROG.EXE
C:\USERS\小川　賢太\DESKTOP\PUROGURAMU まとめ\MENYU-\TETORIS\RELEASE\GAMEPROG.EXE.INTERMEDIATE.MANIFEST
C:\USERS\小川　賢太\DESKTOP\PUROGURAMU まとめ\MENYU-\TETORIS\RELEASE\GAMEPROG.PDB
^C:\USERS\小川　賢太\DESKTOP\PUROGURAMU まとめ\依頼\GAMEPROG\RELEASE\2P.OBJ|C:\USERS\小川　賢太\DESKTOP\PUROGURAMU まとめ\依頼\GAMEPROG\RELEASE\KIHON.OBJ|C:\USERS\小川　賢太\DESKTOP\PUROGURAMU まとめ\依頼\GAMEPROG\RELEASE\MENYU-.OBJ|C:\USERS\小川　賢太\DESKTOP\PUROGURAMU まとめ\依頼\GAMEPROG\RELEASE\SWITCH_HYOUZI.OBJ|C:\USERS\小川　賢太\DESKTOP\PUROGURAMU まとめ\依頼\GAMEPROG\RELEASE\TEST.OBJ
C:\USERS\小川　賢太\DESKTOP\PUROGURAMU まとめ\依頼\GAMEPROG\RELEASE\GAMEPROG.EXE
C:\USERS\小川　賢太\DESKTOP\PUROGURAMU まとめ\依頼\GAMEPROG\RELEASE\GAMEPROG.EXE.INTERMEDIATE.MANIFEST
C:\USERS\小川　賢太\DESKTOP\PUROGURAMU まとめ\依頼\GAMEPROG\RELEASE\GAMEPROG.PDB
