^C:\USERS\小川　賢太\DESKTOP\PUROGURAMU まとめ\MENYU-\TETORIS\RELEASE\GAMEPROG.EXE.INTERMEDIATE.MANIFEST
/nologo /verbose /outputresource:"C:\Users\小川　賢太\Desktop\puroguramu まとめ\menyu-\tetoris\Release\GameProg.exe;#1" /manifest Release\GameProg.exe.intermediate.manifest
^C:\USERS\小川　賢太\DESKTOP\PUROGURAMU まとめ\依頼\GAMEPROG\RELEASE\GAMEPROG.EXE.INTERMEDIATE.MANIFEST
/nologo /verbose /outputresource:"C:\Users\小川　賢太\Desktop\puroguramu まとめ\依頼\Gameprog\Release\GameProg.exe;#1" /manifest Release\GameProg.exe.intermediate.manifest
