^C:\USERS\小川　賢太\DESKTOP\PUROGURAMU まとめ\MENYU-\TETORIS\SWITCH_HYOUZI.CPP
/c /I./DxLib/ /Zi /nologo /W3 /WX- /O2 /Oi /Oy- /GL /D WIN32 /D NDEBUG /D _WINDOWS /D _MBCS /Gm- /EHsc /MT /GS /Gy /fp:precise /Zc:wchar_t /Zc:forScope /Fo"Release\\" /Fd"Release\vc100.pdb" /Gd /TP /analyze- /errorReport:prompt C:\USERS\小川　賢太\DESKTOP\PUROGURAMU まとめ\MENYU-\TETORIS\SWITCH_HYOUZI.CPP
^C:\USERS\小川　賢太\DESKTOP\PUROGURAMU まとめ\MENYU-\TETORIS\TEST.CPP
/c /I./DxLib/ /Zi /nologo /W3 /WX- /O2 /Oi /Oy- /GL /D WIN32 /D NDEBUG /D _WINDOWS /D _MBCS /Gm- /EHsc /MT /GS /Gy /fp:precise /Zc:wchar_t /Zc:forScope /Fo"Release\\" /Fd"Release\vc100.pdb" /Gd /TP /analyze- /errorReport:prompt C:\USERS\小川　賢太\DESKTOP\PUROGURAMU まとめ\MENYU-\TETORIS\TEST.CPP
^C:\USERS\小川　賢太\DESKTOP\PUROGURAMU まとめ\MENYU-\TETORIS\2P.CPP
/c /I./DxLib/ /Zi /nologo /W3 /WX- /O2 /Oi /Oy- /GL /D WIN32 /D NDEBUG /D _WINDOWS /D _MBCS /Gm- /EHsc /MT /GS /Gy /fp:precise /Zc:wchar_t /Zc:forScope /Fo"Release\\" /Fd"Release\vc100.pdb" /Gd /TP /analyze- /errorReport:prompt C:\USERS\小川　賢太\DESKTOP\PUROGURAMU まとめ\MENYU-\TETORIS\2P.CPP
^C:\USERS\小川　賢太\DESKTOP\PUROGURAMU まとめ\依頼\GAMEPROG\2P.CPP
/c /I./DxLib/ /Zi /nologo /W3 /WX- /O2 /Oi /Oy- /GL /D WIN32 /D NDEBUG /D _WINDOWS /D _MBCS /Gm- /EHsc /MT /GS /Gy /fp:precise /Zc:wchar_t /Zc:forScope /Fo"Release\\" /Fd"Release\vc100.pdb" /Gd /TP /analyze- /errorReport:prompt C:\USERS\小川　賢太\DESKTOP\PUROGURAMU まとめ\依頼\GAMEPROG\2P.CPP
^C:\USERS\小川　賢太\DESKTOP\PUROGURAMU まとめ\依頼\GAMEPROG\KIHON.CPP
/c /I./DxLib/ /Zi /nologo /W3 /WX- /O2 /Oi /Oy- /GL /D WIN32 /D NDEBUG /D _WINDOWS /D _MBCS /Gm- /EHsc /MT /GS /Gy /fp:precise /Zc:wchar_t /Zc:forScope /Fo"Release\\" /Fd"Release\vc100.pdb" /Gd /TP /analyze- /errorReport:prompt C:\USERS\小川　賢太\DESKTOP\PUROGURAMU まとめ\依頼\GAMEPROG\KIHON.CPP
^C:\USERS\小川　賢太\DESKTOP\PUROGURAMU まとめ\依頼\GAMEPROG\MENYU-.CPP
/c /I./DxLib/ /Zi /nologo /W3 /WX- /O2 /Oi /Oy- /GL /D WIN32 /D NDEBUG /D _WINDOWS /D _MBCS /Gm- /EHsc /MT /GS /Gy /fp:precise /Zc:wchar_t /Zc:forScope /Fo"Release\\" /Fd"Release\vc100.pdb" /Gd /TP /analyze- /errorReport:prompt C:\USERS\小川　賢太\DESKTOP\PUROGURAMU まとめ\依頼\GAMEPROG\MENYU-.CPP
^C:\USERS\小川　賢太\DESKTOP\PUROGURAMU まとめ\依頼\GAMEPROG\SWITCH_HYOUZI.CPP
/c /I./DxLib/ /Zi /nologo /W3 /WX- /O2 /Oi /Oy- /GL /D WIN32 /D NDEBUG /D _WINDOWS /D _MBCS /Gm- /EHsc /MT /GS /Gy /fp:precise /Zc:wchar_t /Zc:forScope /Fo"Release\\" /Fd"Release\vc100.pdb" /Gd /TP /analyze- /errorReport:prompt C:\USERS\小川　賢太\DESKTOP\PUROGURAMU まとめ\依頼\GAMEPROG\SWITCH_HYOUZI.CPP
^C:\USERS\小川　賢太\DESKTOP\PUROGURAMU まとめ\依頼\GAMEPROG\TEST.CPP
/c /I./DxLib/ /Zi /nologo /W3 /WX- /O2 /Oi /Oy- /GL /D WIN32 /D NDEBUG /D _WINDOWS /D _MBCS /Gm- /EHsc /MT /GS /Gy /fp:precise /Zc:wchar_t /Zc:forScope /Fo"Release\\" /Fd"Release\vc100.pdb" /Gd /TP /analyze- /errorReport:prompt C:\USERS\小川　賢太\DESKTOP\PUROGURAMU まとめ\依頼\GAMEPROG\TEST.CPP
