^C:\USERS\小川　賢太\DESKTOP\PROGURAM\GAMEPROG\DEBUG\GAMEPROG.EXE.EMBED.MANIFEST.RES|C:\USERS\小川　賢太\DESKTOP\PROGURAM\GAMEPROG\DEBUG\TEST.OBJ
C:\USERS\小川　賢太\DESKTOP\PROGURAM\GAMEPROG\DEBUG\GAMEPROG.ILK
C:\USERS\小川　賢太\DESKTOP\PROGURAM\GAMEPROG\DEBUG\GAMEPROG.EXE
C:\USERS\小川　賢太\DESKTOP\PROGURAM\GAMEPROG\DEBUG\GAMEPROG.EXE.INTERMEDIATE.MANIFEST
C:\USERS\小川　賢太\DESKTOP\PROGURAM\GAMEPROG\DEBUG\GAMEPROG.PDB
^C:\USERS\小川　賢太\DESKTOP\PUROGURAMU まとめ\PROGURAM\GAMEPROG\DEBUG\GAMEPROG.EXE.EMBED.MANIFEST.RES|C:\USERS\小川　賢太\DESKTOP\PUROGURAMU まとめ\PROGURAM\GAMEPROG\DEBUG\TEST.OBJ
C:\USERS\小川　賢太\DESKTOP\PUROGURAMU まとめ\PROGURAM\GAMEPROG\DEBUG\GAMEPROG.ILK
C:\USERS\小川　賢太\DESKTOP\PUROGURAMU まとめ\PROGURAM\GAMEPROG\DEBUG\GAMEPROG.EXE
C:\USERS\小川　賢太\DESKTOP\PUROGURAMU まとめ\PROGURAM\GAMEPROG\DEBUG\GAMEPROG.EXE.INTERMEDIATE.MANIFEST
C:\USERS\小川　賢太\DESKTOP\PUROGURAMU まとめ\PROGURAM\GAMEPROG\DEBUG\GAMEPROG.PDB
^C:\USERS\小川　賢太\DESKTOP\PUROGURAMU まとめ\MENYU-\GAMEPROG\DEBUG\GAMEPROG.EXE.EMBED.MANIFEST.RES|C:\USERS\小川　賢太\DESKTOP\PUROGURAMU まとめ\MENYU-\GAMEPROG\DEBUG\TEST.OBJ
C:\USERS\小川　賢太\DESKTOP\PUROGURAMU まとめ\MENYU-\GAMEPROG\DEBUG\GAMEPROG.ILK
C:\USERS\小川　賢太\DESKTOP\PUROGURAMU まとめ\MENYU-\GAMEPROG\DEBUG\GAMEPROG.EXE
C:\USERS\小川　賢太\DESKTOP\PUROGURAMU まとめ\MENYU-\GAMEPROG\DEBUG\GAMEPROG.EXE.INTERMEDIATE.MANIFEST
C:\USERS\小川　賢太\DESKTOP\PUROGURAMU まとめ\MENYU-\GAMEPROG\DEBUG\GAMEPROG.PDB
^C:\USERS\小川　賢太\DESKTOP\PUROGURAMU まとめ\MENYU-\TETORIS\DEBUG\2P.OBJ|C:\USERS\小川　賢太\DESKTOP\PUROGURAMU まとめ\MENYU-\TETORIS\DEBUG\GAMEPROG.EXE.EMBED.MANIFEST.RES|C:\USERS\小川　賢太\DESKTOP\PUROGURAMU まとめ\MENYU-\TETORIS\DEBUG\SWITCH_HYOUZI.OBJ|C:\USERS\小川　賢太\DESKTOP\PUROGURAMU まとめ\MENYU-\TETORIS\DEBUG\TEST.OBJ
C:\USERS\小川　賢太\DESKTOP\PUROGURAMU まとめ\MENYU-\TETORIS\DEBUG\GAMEPROG.ILK
C:\USERS\小川　賢太\DESKTOP\PUROGURAMU まとめ\MENYU-\TETORIS\DEBUG\GAMEPROG.EXE
C:\USERS\小川　賢太\DESKTOP\PUROGURAMU まとめ\MENYU-\TETORIS\DEBUG\GAMEPROG.EXE.INTERMEDIATE.MANIFEST
C:\USERS\小川　賢太\DESKTOP\PUROGURAMU まとめ\MENYU-\TETORIS\DEBUG\GAMEPROG.PDB
^C:\USERS\小川　賢太\DESKTOP\PUROGURAMU まとめ\依頼\GAMEPROG\DEBUG\2P.OBJ|C:\USERS\小川　賢太\DESKTOP\PUROGURAMU まとめ\依頼\GAMEPROG\DEBUG\GAMEPROG.EXE.EMBED.MANIFEST.RES|C:\USERS\小川　賢太\DESKTOP\PUROGURAMU まとめ\依頼\GAMEPROG\DEBUG\KIHON.OBJ|C:\USERS\小川　賢太\DESKTOP\PUROGURAMU まとめ\依頼\GAMEPROG\DEBUG\MENYU-.OBJ|C:\USERS\小川　賢太\DESKTOP\PUROGURAMU まとめ\依頼\GAMEPROG\DEBUG\SWITCH_HYOUZI.OBJ|C:\USERS\小川　賢太\DESKTOP\PUROGURAMU まとめ\依頼\GAMEPROG\DEBUG\TEST.OBJ
C:\USERS\小川　賢太\DESKTOP\PUROGURAMU まとめ\依頼\GAMEPROG\DEBUG\GAMEPROG.ILK
C:\USERS\小川　賢太\DESKTOP\PUROGURAMU まとめ\依頼\GAMEPROG\DEBUG\GAMEPROG.EXE
C:\USERS\小川　賢太\DESKTOP\PUROGURAMU まとめ\依頼\GAMEPROG\DEBUG\GAMEPROG.EXE.INTERMEDIATE.MANIFEST
C:\USERS\小川　賢太\DESKTOP\PUROGURAMU まとめ\依頼\GAMEPROG\DEBUG\GAMEPROG.PDB
^C:\USERS\T12021\DESKTOP\GAMEPROG\DEBUG\2P.OBJ|C:\USERS\T12021\DESKTOP\GAMEPROG\DEBUG\GAMEPROG.EXE.EMBED.MANIFEST.RES|C:\USERS\T12021\DESKTOP\GAMEPROG\DEBUG\KIHON.OBJ|C:\USERS\T12021\DESKTOP\GAMEPROG\DEBUG\MENYU-.OBJ|C:\USERS\T12021\DESKTOP\GAMEPROG\DEBUG\SWITCH_HYOUZI.OBJ|C:\USERS\T12021\DESKTOP\GAMEPROG\DEBUG\TEST.OBJ
C:\USERS\T12021\DESKTOP\GAMEPROG\DEBUG\GAMEPROG.ILK
C:\USERS\T12021\DESKTOP\GAMEPROG\DEBUG\GAMEPROG.EXE
C:\USERS\T12021\DESKTOP\GAMEPROG\DEBUG\GAMEPROG.EXE.INTERMEDIATE.MANIFEST
C:\USERS\T12021\DESKTOP\GAMEPROG\DEBUG\GAMEPROG.PDB
^C:\USERS\T12021\DESKTOP\依頼2P\LOO\DEBUG\2P.OBJ|C:\USERS\T12021\DESKTOP\依頼2P\LOO\DEBUG\GAMEPROG.EXE.EMBED.MANIFEST.RES|C:\USERS\T12021\DESKTOP\依頼2P\LOO\DEBUG\KIHON.OBJ|C:\USERS\T12021\DESKTOP\依頼2P\LOO\DEBUG\MENYU-.OBJ|C:\USERS\T12021\DESKTOP\依頼2P\LOO\DEBUG\SWITCH_HYOUZI.OBJ|C:\USERS\T12021\DESKTOP\依頼2P\LOO\DEBUG\TEST.OBJ
C:\USERS\T12021\DESKTOP\依頼2P\LOO\DEBUG\GAMEPROG.ILK
C:\USERS\T12021\DESKTOP\依頼2P\LOO\DEBUG\GAMEPROG.EXE
C:\USERS\T12021\DESKTOP\依頼2P\LOO\DEBUG\GAMEPROG.EXE.INTERMEDIATE.MANIFEST
C:\USERS\T12021\DESKTOP\依頼2P\LOO\DEBUG\GAMEPROG.PDB
