^C:\USERS\小川　賢太\DESKTOP\PROGURAM\GAMEPROG\DEBUG\GAMEPROG.EXE.EMBED.MANIFEST.RES|C:\USERS\小川　賢太\DESKTOP\PROGURAM\GAMEPROG\DEBUG\TEST.OBJ
C:\WINDOWS\GLOBALIZATION\SORTING\SORTDEFAULT.NLS
C:\PROGRAM FILES (X86)\MICROSOFT SDKS\WINDOWS\V7.0A\LIB\KERNEL32.LIB
C:\PROGRAM FILES (X86)\MICROSOFT SDKS\WINDOWS\V7.0A\LIB\USER32.LIB
C:\PROGRAM FILES (X86)\MICROSOFT SDKS\WINDOWS\V7.0A\LIB\GDI32.LIB
C:\PROGRAM FILES (X86)\MICROSOFT SDKS\WINDOWS\V7.0A\LIB\WINSPOOL.LIB
C:\PROGRAM FILES (X86)\MICROSOFT SDKS\WINDOWS\V7.0A\LIB\COMDLG32.LIB
C:\PROGRAM FILES (X86)\MICROSOFT SDKS\WINDOWS\V7.0A\LIB\ADVAPI32.LIB
C:\PROGRAM FILES (X86)\MICROSOFT SDKS\WINDOWS\V7.0A\LIB\SHELL32.LIB
C:\PROGRAM FILES (X86)\MICROSOFT SDKS\WINDOWS\V7.0A\LIB\OLE32.LIB
C:\PROGRAM FILES (X86)\MICROSOFT SDKS\WINDOWS\V7.0A\LIB\OLEAUT32.LIB
C:\PROGRAM FILES (X86)\MICROSOFT SDKS\WINDOWS\V7.0A\LIB\UUID.LIB
C:\PROGRAM FILES (X86)\MICROSOFT SDKS\WINDOWS\V7.0A\LIB\ODBC32.LIB
C:\PROGRAM FILES (X86)\MICROSOFT SDKS\WINDOWS\V7.0A\LIB\ODBCCP32.LIB
C:\USERS\小川　賢太\DESKTOP\PROGURAM\GAMEPROG\DEBUG\GAMEPROG.EXE.EMBED.MANIFEST.RES
C:\USERS\小川　賢太\DESKTOP\PROGURAM\GAMEPROG\DEBUG\TEST.OBJ
C:\WINDOWS\SYSTEM32\TZRES.DLL
C:\USERS\小川　賢太\DESKTOP\PROGURAM\GAMEPROG\DEBUG\GAMEPROG.EXE
C:\USERS\小川　賢太\DESKTOP\PROGURAM\GAMEPROG\DEBUG\GAMEPROG.PDB
C:\USERS\小川　賢太\DESKTOP\PROGURAM\GAMEPROG\DXLIB\DXLIB_D.LIB
C:\USERS\小川　賢太\DESKTOP\PROGURAM\GAMEPROG\DXLIB\DXUSECLIB_D.LIB
C:\USERS\小川　賢太\DESKTOP\PROGURAM\GAMEPROG\DXLIB\DXDRAWFUNC.LIB
C:\USERS\小川　賢太\DESKTOP\PROGURAM\GAMEPROG\DXLIB\LIBPNG_D.LIB
C:\USERS\小川　賢太\DESKTOP\PROGURAM\GAMEPROG\DXLIB\ZLIB_D.LIB
C:\USERS\小川　賢太\DESKTOP\PROGURAM\GAMEPROG\DXLIB\LIBJPEG_D.LIB
C:\USERS\小川　賢太\DESKTOP\PROGURAM\GAMEPROG\DXLIB\OGG_STATIC_D.LIB
C:\USERS\小川　賢太\DESKTOP\PROGURAM\GAMEPROG\DXLIB\VORBIS_STATIC_D.LIB
C:\USERS\小川　賢太\DESKTOP\PROGURAM\GAMEPROG\DXLIB\VORBISFILE_STATIC_D.LIB
C:\USERS\小川　賢太\DESKTOP\PROGURAM\GAMEPROG\DXLIB\LIBTHEORA_STATIC_D.LIB
C:\PROGRAM FILES (X86)\MICROSOFT VISUAL STUDIO 10.0\VC\LIB\LIBCMTD.LIB
C:\PROGRAM FILES (X86)\MICROSOFT VISUAL STUDIO 10.0\VC\LIB\OLDNAMES.LIB
C:\PROGRAM FILES (X86)\MICROSOFT VISUAL STUDIO 10.0\VC\LIB\LIBCPMTD.LIB
^C:\USERS\小川　賢太\DESKTOP\PUROGURAMU まとめ\PROGURAM\GAMEPROG\DEBUG\GAMEPROG.EXE.EMBED.MANIFEST.RES|C:\USERS\小川　賢太\DESKTOP\PUROGURAMU まとめ\PROGURAM\GAMEPROG\DEBUG\TEST.OBJ
C:\WINDOWS\GLOBALIZATION\SORTING\SORTDEFAULT.NLS
C:\PROGRAM FILES (X86)\MICROSOFT SDKS\WINDOWS\V7.0A\LIB\KERNEL32.LIB
C:\PROGRAM FILES (X86)\MICROSOFT SDKS\WINDOWS\V7.0A\LIB\USER32.LIB
C:\PROGRAM FILES (X86)\MICROSOFT SDKS\WINDOWS\V7.0A\LIB\GDI32.LIB
C:\PROGRAM FILES (X86)\MICROSOFT SDKS\WINDOWS\V7.0A\LIB\WINSPOOL.LIB
C:\PROGRAM FILES (X86)\MICROSOFT SDKS\WINDOWS\V7.0A\LIB\COMDLG32.LIB
C:\PROGRAM FILES (X86)\MICROSOFT SDKS\WINDOWS\V7.0A\LIB\ADVAPI32.LIB
C:\PROGRAM FILES (X86)\MICROSOFT SDKS\WINDOWS\V7.0A\LIB\SHELL32.LIB
C:\PROGRAM FILES (X86)\MICROSOFT SDKS\WINDOWS\V7.0A\LIB\OLE32.LIB
C:\PROGRAM FILES (X86)\MICROSOFT SDKS\WINDOWS\V7.0A\LIB\OLEAUT32.LIB
C:\PROGRAM FILES (X86)\MICROSOFT SDKS\WINDOWS\V7.0A\LIB\UUID.LIB
C:\PROGRAM FILES (X86)\MICROSOFT SDKS\WINDOWS\V7.0A\LIB\ODBC32.LIB
C:\PROGRAM FILES (X86)\MICROSOFT SDKS\WINDOWS\V7.0A\LIB\ODBCCP32.LIB
C:\USERS\小川　賢太\DESKTOP\PUROGURAMU まとめ\PROGURAM\GAMEPROG\DEBUG\GAMEPROG.EXE.EMBED.MANIFEST.RES
C:\USERS\小川　賢太\DESKTOP\PUROGURAMU まとめ\PROGURAM\GAMEPROG\DEBUG\TEST.OBJ
C:\WINDOWS\SYSTEM32\TZRES.DLL
C:\USERS\小川　賢太\DESKTOP\PUROGURAMU まとめ\PROGURAM\GAMEPROG\DEBUG\GAMEPROG.EXE
C:\USERS\小川　賢太\DESKTOP\PUROGURAMU まとめ\PROGURAM\GAMEPROG\DEBUG\GAMEPROG.PDB
C:\USERS\小川　賢太\DESKTOP\PUROGURAMU まとめ\PROGURAM\GAMEPROG\DXLIB\DXLIB_D.LIB
C:\USERS\小川　賢太\DESKTOP\PUROGURAMU まとめ\PROGURAM\GAMEPROG\DXLIB\DXUSECLIB_D.LIB
C:\USERS\小川　賢太\DESKTOP\PUROGURAMU まとめ\PROGURAM\GAMEPROG\DXLIB\DXDRAWFUNC.LIB
C:\USERS\小川　賢太\DESKTOP\PUROGURAMU まとめ\PROGURAM\GAMEPROG\DXLIB\LIBPNG_D.LIB
C:\USERS\小川　賢太\DESKTOP\PUROGURAMU まとめ\PROGURAM\GAMEPROG\DXLIB\ZLIB_D.LIB
C:\USERS\小川　賢太\DESKTOP\PUROGURAMU まとめ\PROGURAM\GAMEPROG\DXLIB\LIBJPEG_D.LIB
C:\USERS\小川　賢太\DESKTOP\PUROGURAMU まとめ\PROGURAM\GAMEPROG\DXLIB\OGG_STATIC_D.LIB
C:\USERS\小川　賢太\DESKTOP\PUROGURAMU まとめ\PROGURAM\GAMEPROG\DXLIB\VORBIS_STATIC_D.LIB
C:\USERS\小川　賢太\DESKTOP\PUROGURAMU まとめ\PROGURAM\GAMEPROG\DXLIB\VORBISFILE_STATIC_D.LIB
C:\USERS\小川　賢太\DESKTOP\PUROGURAMU まとめ\PROGURAM\GAMEPROG\DXLIB\LIBTHEORA_STATIC_D.LIB
C:\PROGRAM FILES (X86)\MICROSOFT VISUAL STUDIO 10.0\VC\LIB\LIBCMTD.LIB
C:\PROGRAM FILES (X86)\MICROSOFT VISUAL STUDIO 10.0\VC\LIB\OLDNAMES.LIB
C:\PROGRAM FILES (X86)\MICROSOFT VISUAL STUDIO 10.0\VC\LIB\LIBCPMTD.LIB
C:\PROGRAM FILES (X86)\MICROSOFT VISUAL STUDIO 10.0\VC\BIN\CVTRES.EXE
C:\WINDOWS\SYSTEM32\RSAENH.DLL
^C:\USERS\小川　賢太\DESKTOP\PUROGURAMU まとめ\MENYU-\GAMEPROG\DEBUG\GAMEPROG.EXE.EMBED.MANIFEST.RES|C:\USERS\小川　賢太\DESKTOP\PUROGURAMU まとめ\MENYU-\GAMEPROG\DEBUG\TEST.OBJ
C:\WINDOWS\GLOBALIZATION\SORTING\SORTDEFAULT.NLS
C:\PROGRAM FILES (X86)\MICROSOFT SDKS\WINDOWS\V7.0A\LIB\KERNEL32.LIB
C:\PROGRAM FILES (X86)\MICROSOFT SDKS\WINDOWS\V7.0A\LIB\USER32.LIB
C:\PROGRAM FILES (X86)\MICROSOFT SDKS\WINDOWS\V7.0A\LIB\GDI32.LIB
C:\PROGRAM FILES (X86)\MICROSOFT SDKS\WINDOWS\V7.0A\LIB\WINSPOOL.LIB
C:\PROGRAM FILES (X86)\MICROSOFT SDKS\WINDOWS\V7.0A\LIB\COMDLG32.LIB
C:\PROGRAM FILES (X86)\MICROSOFT SDKS\WINDOWS\V7.0A\LIB\ADVAPI32.LIB
C:\PROGRAM FILES (X86)\MICROSOFT SDKS\WINDOWS\V7.0A\LIB\SHELL32.LIB
C:\PROGRAM FILES (X86)\MICROSOFT SDKS\WINDOWS\V7.0A\LIB\OLE32.LIB
C:\PROGRAM FILES (X86)\MICROSOFT SDKS\WINDOWS\V7.0A\LIB\OLEAUT32.LIB
C:\PROGRAM FILES (X86)\MICROSOFT SDKS\WINDOWS\V7.0A\LIB\UUID.LIB
C:\PROGRAM FILES (X86)\MICROSOFT SDKS\WINDOWS\V7.0A\LIB\ODBC32.LIB
C:\PROGRAM FILES (X86)\MICROSOFT SDKS\WINDOWS\V7.0A\LIB\ODBCCP32.LIB
C:\USERS\小川　賢太\DESKTOP\PUROGURAMU まとめ\MENYU-\GAMEPROG\DEBUG\GAMEPROG.EXE.EMBED.MANIFEST.RES
C:\USERS\小川　賢太\DESKTOP\PUROGURAMU まとめ\MENYU-\GAMEPROG\DEBUG\TEST.OBJ
C:\WINDOWS\SYSTEM32\TZRES.DLL
C:\USERS\小川　賢太\DESKTOP\PUROGURAMU まとめ\MENYU-\GAMEPROG\DEBUG\GAMEPROG.EXE
C:\USERS\小川　賢太\DESKTOP\PUROGURAMU まとめ\MENYU-\GAMEPROG\DEBUG\GAMEPROG.PDB
C:\USERS\小川　賢太\DESKTOP\PUROGURAMU まとめ\MENYU-\GAMEPROG\DXLIB\DXLIB_D.LIB
C:\USERS\小川　賢太\DESKTOP\PUROGURAMU まとめ\MENYU-\GAMEPROG\DXLIB\DXUSECLIB_D.LIB
C:\USERS\小川　賢太\DESKTOP\PUROGURAMU まとめ\MENYU-\GAMEPROG\DXLIB\DXDRAWFUNC.LIB
C:\USERS\小川　賢太\DESKTOP\PUROGURAMU まとめ\MENYU-\GAMEPROG\DXLIB\LIBPNG_D.LIB
C:\USERS\小川　賢太\DESKTOP\PUROGURAMU まとめ\MENYU-\GAMEPROG\DXLIB\ZLIB_D.LIB
C:\USERS\小川　賢太\DESKTOP\PUROGURAMU まとめ\MENYU-\GAMEPROG\DXLIB\LIBJPEG_D.LIB
C:\USERS\小川　賢太\DESKTOP\PUROGURAMU まとめ\MENYU-\GAMEPROG\DXLIB\OGG_STATIC_D.LIB
C:\USERS\小川　賢太\DESKTOP\PUROGURAMU まとめ\MENYU-\GAMEPROG\DXLIB\VORBIS_STATIC_D.LIB
C:\USERS\小川　賢太\DESKTOP\PUROGURAMU まとめ\MENYU-\GAMEPROG\DXLIB\VORBISFILE_STATIC_D.LIB
C:\USERS\小川　賢太\DESKTOP\PUROGURAMU まとめ\MENYU-\GAMEPROG\DXLIB\LIBTHEORA_STATIC_D.LIB
C:\PROGRAM FILES (X86)\MICROSOFT VISUAL STUDIO 10.0\VC\LIB\LIBCMTD.LIB
C:\PROGRAM FILES (X86)\MICROSOFT VISUAL STUDIO 10.0\VC\LIB\OLDNAMES.LIB
C:\PROGRAM FILES (X86)\MICROSOFT VISUAL STUDIO 10.0\VC\LIB\LIBCPMTD.LIB
^C:\USERS\小川　賢太\DESKTOP\PUROGURAMU まとめ\MENYU-\TETORIS\DEBUG\2P.OBJ|C:\USERS\小川　賢太\DESKTOP\PUROGURAMU まとめ\MENYU-\TETORIS\DEBUG\GAMEPROG.EXE.EMBED.MANIFEST.RES|C:\USERS\小川　賢太\DESKTOP\PUROGURAMU まとめ\MENYU-\TETORIS\DEBUG\SWITCH_HYOUZI.OBJ|C:\USERS\小川　賢太\DESKTOP\PUROGURAMU まとめ\MENYU-\TETORIS\DEBUG\TEST.OBJ
C:\WINDOWS\GLOBALIZATION\SORTING\SORTDEFAULT.NLS
C:\PROGRAM FILES (X86)\MICROSOFT SDKS\WINDOWS\V7.0A\LIB\KERNEL32.LIB
C:\PROGRAM FILES (X86)\MICROSOFT SDKS\WINDOWS\V7.0A\LIB\USER32.LIB
C:\PROGRAM FILES (X86)\MICROSOFT SDKS\WINDOWS\V7.0A\LIB\GDI32.LIB
C:\PROGRAM FILES (X86)\MICROSOFT SDKS\WINDOWS\V7.0A\LIB\WINSPOOL.LIB
C:\PROGRAM FILES (X86)\MICROSOFT SDKS\WINDOWS\V7.0A\LIB\COMDLG32.LIB
C:\PROGRAM FILES (X86)\MICROSOFT SDKS\WINDOWS\V7.0A\LIB\ADVAPI32.LIB
C:\PROGRAM FILES (X86)\MICROSOFT SDKS\WINDOWS\V7.0A\LIB\SHELL32.LIB
C:\PROGRAM FILES (X86)\MICROSOFT SDKS\WINDOWS\V7.0A\LIB\OLE32.LIB
C:\PROGRAM FILES (X86)\MICROSOFT SDKS\WINDOWS\V7.0A\LIB\OLEAUT32.LIB
C:\PROGRAM FILES (X86)\MICROSOFT SDKS\WINDOWS\V7.0A\LIB\UUID.LIB
C:\PROGRAM FILES (X86)\MICROSOFT SDKS\WINDOWS\V7.0A\LIB\ODBC32.LIB
C:\PROGRAM FILES (X86)\MICROSOFT SDKS\WINDOWS\V7.0A\LIB\ODBCCP32.LIB
C:\USERS\小川　賢太\DESKTOP\PUROGURAMU まとめ\MENYU-\TETORIS\DEBUG\GAMEPROG.EXE.EMBED.MANIFEST.RES
C:\USERS\小川　賢太\DESKTOP\PUROGURAMU まとめ\MENYU-\TETORIS\DEBUG\2P.OBJ
C:\USERS\小川　賢太\DESKTOP\PUROGURAMU まとめ\MENYU-\TETORIS\DEBUG\SWITCH_HYOUZI.OBJ
C:\USERS\小川　賢太\DESKTOP\PUROGURAMU まとめ\MENYU-\TETORIS\DEBUG\TEST.OBJ
C:\WINDOWS\SYSTEM32\TZRES.DLL
C:\USERS\小川　賢太\DESKTOP\PUROGURAMU まとめ\MENYU-\TETORIS\DEBUG\GAMEPROG.EXE
C:\USERS\小川　賢太\DESKTOP\PUROGURAMU まとめ\MENYU-\TETORIS\DEBUG\GAMEPROG.PDB
C:\USERS\小川　賢太\DESKTOP\PUROGURAMU まとめ\MENYU-\TETORIS\DXLIB\DXLIB_D.LIB
C:\USERS\小川　賢太\DESKTOP\PUROGURAMU まとめ\MENYU-\TETORIS\DXLIB\DXUSECLIB_D.LIB
C:\USERS\小川　賢太\DESKTOP\PUROGURAMU まとめ\MENYU-\TETORIS\DXLIB\DXDRAWFUNC.LIB
C:\USERS\小川　賢太\DESKTOP\PUROGURAMU まとめ\MENYU-\TETORIS\DXLIB\LIBPNG_D.LIB
C:\USERS\小川　賢太\DESKTOP\PUROGURAMU まとめ\MENYU-\TETORIS\DXLIB\ZLIB_D.LIB
C:\USERS\小川　賢太\DESKTOP\PUROGURAMU まとめ\MENYU-\TETORIS\DXLIB\LIBJPEG_D.LIB
C:\USERS\小川　賢太\DESKTOP\PUROGURAMU まとめ\MENYU-\TETORIS\DXLIB\OGG_STATIC_D.LIB
C:\USERS\小川　賢太\DESKTOP\PUROGURAMU まとめ\MENYU-\TETORIS\DXLIB\VORBIS_STATIC_D.LIB
C:\USERS\小川　賢太\DESKTOP\PUROGURAMU まとめ\MENYU-\TETORIS\DXLIB\VORBISFILE_STATIC_D.LIB
C:\USERS\小川　賢太\DESKTOP\PUROGURAMU まとめ\MENYU-\TETORIS\DXLIB\LIBTHEORA_STATIC_D.LIB
C:\PROGRAM FILES (X86)\MICROSOFT VISUAL STUDIO 10.0\VC\LIB\LIBCMTD.LIB
C:\PROGRAM FILES (X86)\MICROSOFT VISUAL STUDIO 10.0\VC\LIB\OLDNAMES.LIB
C:\PROGRAM FILES (X86)\MICROSOFT VISUAL STUDIO 10.0\VC\LIB\LIBCPMTD.LIB
^C:\USERS\小川　賢太\DESKTOP\PUROGURAMU まとめ\依頼\GAMEPROG\DEBUG\2P.OBJ|C:\USERS\小川　賢太\DESKTOP\PUROGURAMU まとめ\依頼\GAMEPROG\DEBUG\GAMEPROG.EXE.EMBED.MANIFEST.RES|C:\USERS\小川　賢太\DESKTOP\PUROGURAMU まとめ\依頼\GAMEPROG\DEBUG\KIHON.OBJ|C:\USERS\小川　賢太\DESKTOP\PUROGURAMU まとめ\依頼\GAMEPROG\DEBUG\MENYU-.OBJ|C:\USERS\小川　賢太\DESKTOP\PUROGURAMU まとめ\依頼\GAMEPROG\DEBUG\SWITCH_HYOUZI.OBJ|C:\USERS\小川　賢太\DESKTOP\PUROGURAMU まとめ\依頼\GAMEPROG\DEBUG\TEST.OBJ
C:\WINDOWS\GLOBALIZATION\SORTING\SORTDEFAULT.NLS
C:\PROGRAM FILES (X86)\MICROSOFT SDKS\WINDOWS\V7.0A\LIB\KERNEL32.LIB
C:\PROGRAM FILES (X86)\MICROSOFT SDKS\WINDOWS\V7.0A\LIB\USER32.LIB
C:\PROGRAM FILES (X86)\MICROSOFT SDKS\WINDOWS\V7.0A\LIB\GDI32.LIB
C:\PROGRAM FILES (X86)\MICROSOFT SDKS\WINDOWS\V7.0A\LIB\WINSPOOL.LIB
C:\PROGRAM FILES (X86)\MICROSOFT SDKS\WINDOWS\V7.0A\LIB\COMDLG32.LIB
C:\PROGRAM FILES (X86)\MICROSOFT SDKS\WINDOWS\V7.0A\LIB\ADVAPI32.LIB
C:\PROGRAM FILES (X86)\MICROSOFT SDKS\WINDOWS\V7.0A\LIB\SHELL32.LIB
C:\PROGRAM FILES (X86)\MICROSOFT SDKS\WINDOWS\V7.0A\LIB\OLE32.LIB
C:\PROGRAM FILES (X86)\MICROSOFT SDKS\WINDOWS\V7.0A\LIB\OLEAUT32.LIB
C:\PROGRAM FILES (X86)\MICROSOFT SDKS\WINDOWS\V7.0A\LIB\UUID.LIB
C:\PROGRAM FILES (X86)\MICROSOFT SDKS\WINDOWS\V7.0A\LIB\ODBC32.LIB
C:\PROGRAM FILES (X86)\MICROSOFT SDKS\WINDOWS\V7.0A\LIB\ODBCCP32.LIB
C:\USERS\小川　賢太\DESKTOP\PUROGURAMU まとめ\依頼\GAMEPROG\DEBUG\GAMEPROG.EXE.EMBED.MANIFEST.RES
C:\USERS\小川　賢太\DESKTOP\PUROGURAMU まとめ\依頼\GAMEPROG\DEBUG\2P.OBJ
C:\USERS\小川　賢太\DESKTOP\PUROGURAMU まとめ\依頼\GAMEPROG\DEBUG\KIHON.OBJ
C:\USERS\小川　賢太\DESKTOP\PUROGURAMU まとめ\依頼\GAMEPROG\DEBUG\MENYU-.OBJ
C:\USERS\小川　賢太\DESKTOP\PUROGURAMU まとめ\依頼\GAMEPROG\DEBUG\SWITCH_HYOUZI.OBJ
C:\USERS\小川　賢太\DESKTOP\PUROGURAMU まとめ\依頼\GAMEPROG\DEBUG\TEST.OBJ
C:\WINDOWS\SYSTEM32\TZRES.DLL
C:\USERS\小川　賢太\DESKTOP\PUROGURAMU まとめ\依頼\GAMEPROG\DEBUG\GAMEPROG.EXE
C:\USERS\小川　賢太\DESKTOP\PUROGURAMU まとめ\依頼\GAMEPROG\DEBUG\GAMEPROG.PDB
C:\USERS\小川　賢太\DESKTOP\PUROGURAMU まとめ\依頼\GAMEPROG\DXLIB\DXLIB_D.LIB
C:\USERS\小川　賢太\DESKTOP\PUROGURAMU まとめ\依頼\GAMEPROG\DXLIB\DXUSECLIB_D.LIB
C:\USERS\小川　賢太\DESKTOP\PUROGURAMU まとめ\依頼\GAMEPROG\DXLIB\DXDRAWFUNC.LIB
C:\USERS\小川　賢太\DESKTOP\PUROGURAMU まとめ\依頼\GAMEPROG\DXLIB\LIBPNG_D.LIB
C:\USERS\小川　賢太\DESKTOP\PUROGURAMU まとめ\依頼\GAMEPROG\DXLIB\ZLIB_D.LIB
C:\USERS\小川　賢太\DESKTOP\PUROGURAMU まとめ\依頼\GAMEPROG\DXLIB\LIBJPEG_D.LIB
C:\USERS\小川　賢太\DESKTOP\PUROGURAMU まとめ\依頼\GAMEPROG\DXLIB\OGG_STATIC_D.LIB
C:\USERS\小川　賢太\DESKTOP\PUROGURAMU まとめ\依頼\GAMEPROG\DXLIB\VORBIS_STATIC_D.LIB
C:\USERS\小川　賢太\DESKTOP\PUROGURAMU まとめ\依頼\GAMEPROG\DXLIB\VORBISFILE_STATIC_D.LIB
C:\USERS\小川　賢太\DESKTOP\PUROGURAMU まとめ\依頼\GAMEPROG\DXLIB\LIBTHEORA_STATIC_D.LIB
C:\PROGRAM FILES (X86)\MICROSOFT VISUAL STUDIO 10.0\VC\LIB\LIBCMTD.LIB
C:\PROGRAM FILES (X86)\MICROSOFT VISUAL STUDIO 10.0\VC\LIB\OLDNAMES.LIB
C:\PROGRAM FILES (X86)\MICROSOFT VISUAL STUDIO 10.0\VC\LIB\LIBCPMTD.LIB
^C:\USERS\T12021\DESKTOP\GAMEPROG\DEBUG\2P.OBJ|C:\USERS\T12021\DESKTOP\GAMEPROG\DEBUG\GAMEPROG.EXE.EMBED.MANIFEST.RES|C:\USERS\T12021\DESKTOP\GAMEPROG\DEBUG\KIHON.OBJ|C:\USERS\T12021\DESKTOP\GAMEPROG\DEBUG\MENYU-.OBJ|C:\USERS\T12021\DESKTOP\GAMEPROG\DEBUG\SWITCH_HYOUZI.OBJ|C:\USERS\T12021\DESKTOP\GAMEPROG\DEBUG\TEST.OBJ
C:\WINDOWS\GLOBALIZATION\SORTING\SORTDEFAULT.NLS
C:\PROGRAM FILES (X86)\MICROSOFT SDKS\WINDOWS\V7.0A\LIB\KERNEL32.LIB
C:\PROGRAM FILES (X86)\MICROSOFT SDKS\WINDOWS\V7.0A\LIB\USER32.LIB
C:\PROGRAM FILES (X86)\MICROSOFT SDKS\WINDOWS\V7.0A\LIB\GDI32.LIB
C:\PROGRAM FILES (X86)\MICROSOFT SDKS\WINDOWS\V7.0A\LIB\WINSPOOL.LIB
C:\PROGRAM FILES (X86)\MICROSOFT SDKS\WINDOWS\V7.0A\LIB\COMDLG32.LIB
C:\PROGRAM FILES (X86)\MICROSOFT SDKS\WINDOWS\V7.0A\LIB\ADVAPI32.LIB
C:\PROGRAM FILES (X86)\MICROSOFT SDKS\WINDOWS\V7.0A\LIB\SHELL32.LIB
C:\PROGRAM FILES (X86)\MICROSOFT SDKS\WINDOWS\V7.0A\LIB\OLE32.LIB
C:\PROGRAM FILES (X86)\MICROSOFT SDKS\WINDOWS\V7.0A\LIB\OLEAUT32.LIB
C:\PROGRAM FILES (X86)\MICROSOFT SDKS\WINDOWS\V7.0A\LIB\UUID.LIB
C:\PROGRAM FILES (X86)\MICROSOFT SDKS\WINDOWS\V7.0A\LIB\ODBC32.LIB
C:\PROGRAM FILES (X86)\MICROSOFT SDKS\WINDOWS\V7.0A\LIB\ODBCCP32.LIB
C:\USERS\T12021\DESKTOP\GAMEPROG\DEBUG\GAMEPROG.EXE.EMBED.MANIFEST.RES
C:\USERS\T12021\DESKTOP\GAMEPROG\DEBUG\2P.OBJ
C:\USERS\T12021\DESKTOP\GAMEPROG\DEBUG\KIHON.OBJ
C:\USERS\T12021\DESKTOP\GAMEPROG\DEBUG\MENYU-.OBJ
C:\USERS\T12021\DESKTOP\GAMEPROG\DEBUG\SWITCH_HYOUZI.OBJ
C:\USERS\T12021\DESKTOP\GAMEPROG\DEBUG\TEST.OBJ
C:\WINDOWS\SYSTEM32\TZRES.DLL
C:\USERS\T12021\DESKTOP\GAMEPROG\DEBUG\GAMEPROG.EXE
C:\PROGRAM FILES (X86)\MICROSOFT VISUAL STUDIO 10.0\VC\BIN\1041\LINKUI.DLL
C:\USERS\T12021\DESKTOP\GAMEPROG\DXLIB\DXLIB_D.LIB
C:\USERS\T12021\DESKTOP\GAMEPROG\DXLIB\DXUSECLIB_D.LIB
C:\USERS\T12021\DESKTOP\GAMEPROG\DXLIB\DXDRAWFUNC.LIB
C:\USERS\T12021\DESKTOP\GAMEPROG\DXLIB\LIBPNG_D.LIB
C:\USERS\T12021\DESKTOP\GAMEPROG\DXLIB\ZLIB_D.LIB
C:\USERS\T12021\DESKTOP\GAMEPROG\DXLIB\LIBJPEG_D.LIB
C:\USERS\T12021\DESKTOP\GAMEPROG\DXLIB\OGG_STATIC_D.LIB
C:\USERS\T12021\DESKTOP\GAMEPROG\DXLIB\VORBIS_STATIC_D.LIB
C:\USERS\T12021\DESKTOP\GAMEPROG\DXLIB\VORBISFILE_STATIC_D.LIB
C:\USERS\T12021\DESKTOP\GAMEPROG\DXLIB\LIBTHEORA_STATIC_D.LIB
C:\PROGRAM FILES (X86)\MICROSOFT VISUAL STUDIO 10.0\VC\LIB\LIBCMTD.LIB
C:\PROGRAM FILES (X86)\MICROSOFT VISUAL STUDIO 10.0\VC\LIB\OLDNAMES.LIB
C:\PROGRAM FILES (X86)\MICROSOFT VISUAL STUDIO 10.0\VC\LIB\LIBCPMTD.LIB
C:\PROGRAM FILES (X86)\MICROSOFT VISUAL STUDIO 10.0\VC\BIN\CVTRES.EXE
C:\WINDOWS\SYSTEM32\RSAENH.DLL
^C:\USERS\T12021\DESKTOP\依頼2P\LOO\DEBUG\2P.OBJ|C:\USERS\T12021\DESKTOP\依頼2P\LOO\DEBUG\GAMEPROG.EXE.EMBED.MANIFEST.RES|C:\USERS\T12021\DESKTOP\依頼2P\LOO\DEBUG\KIHON.OBJ|C:\USERS\T12021\DESKTOP\依頼2P\LOO\DEBUG\MENYU-.OBJ|C:\USERS\T12021\DESKTOP\依頼2P\LOO\DEBUG\SWITCH_HYOUZI.OBJ|C:\USERS\T12021\DESKTOP\依頼2P\LOO\DEBUG\TEST.OBJ
C:\WINDOWS\GLOBALIZATION\SORTING\SORTDEFAULT.NLS
C:\PROGRAM FILES (X86)\MICROSOFT SDKS\WINDOWS\V7.0A\LIB\KERNEL32.LIB
C:\PROGRAM FILES (X86)\MICROSOFT SDKS\WINDOWS\V7.0A\LIB\USER32.LIB
C:\PROGRAM FILES (X86)\MICROSOFT SDKS\WINDOWS\V7.0A\LIB\GDI32.LIB
C:\PROGRAM FILES (X86)\MICROSOFT SDKS\WINDOWS\V7.0A\LIB\WINSPOOL.LIB
C:\PROGRAM FILES (X86)\MICROSOFT SDKS\WINDOWS\V7.0A\LIB\COMDLG32.LIB
C:\PROGRAM FILES (X86)\MICROSOFT SDKS\WINDOWS\V7.0A\LIB\ADVAPI32.LIB
C:\PROGRAM FILES (X86)\MICROSOFT SDKS\WINDOWS\V7.0A\LIB\SHELL32.LIB
C:\PROGRAM FILES (X86)\MICROSOFT SDKS\WINDOWS\V7.0A\LIB\OLE32.LIB
C:\PROGRAM FILES (X86)\MICROSOFT SDKS\WINDOWS\V7.0A\LIB\OLEAUT32.LIB
C:\PROGRAM FILES (X86)\MICROSOFT SDKS\WINDOWS\V7.0A\LIB\UUID.LIB
C:\PROGRAM FILES (X86)\MICROSOFT SDKS\WINDOWS\V7.0A\LIB\ODBC32.LIB
C:\PROGRAM FILES (X86)\MICROSOFT SDKS\WINDOWS\V7.0A\LIB\ODBCCP32.LIB
C:\USERS\T12021\DESKTOP\依頼2P\LOO\DEBUG\GAMEPROG.EXE.EMBED.MANIFEST.RES
C:\USERS\T12021\DESKTOP\依頼2P\LOO\DEBUG\2P.OBJ
C:\USERS\T12021\DESKTOP\依頼2P\LOO\DEBUG\KIHON.OBJ
C:\USERS\T12021\DESKTOP\依頼2P\LOO\DEBUG\MENYU-.OBJ
C:\USERS\T12021\DESKTOP\依頼2P\LOO\DEBUG\SWITCH_HYOUZI.OBJ
C:\USERS\T12021\DESKTOP\依頼2P\LOO\DEBUG\TEST.OBJ
C:\WINDOWS\SYSTEM32\TZRES.DLL
C:\USERS\T12021\DESKTOP\依頼2P\LOO\DEBUG\GAMEPROG.EXE
C:\USERS\T12021\DESKTOP\依頼2P\LOO\DEBUG\GAMEPROG.PDB
C:\USERS\T12021\DESKTOP\依頼2P\LOO\DXLIB\DXLIB_D.LIB
C:\USERS\T12021\DESKTOP\依頼2P\LOO\DXLIB\DXUSECLIB_D.LIB
C:\USERS\T12021\DESKTOP\依頼2P\LOO\DXLIB\DXDRAWFUNC.LIB
C:\USERS\T12021\DESKTOP\依頼2P\LOO\DXLIB\LIBPNG_D.LIB
C:\USERS\T12021\DESKTOP\依頼2P\LOO\DXLIB\ZLIB_D.LIB
C:\USERS\T12021\DESKTOP\依頼2P\LOO\DXLIB\LIBJPEG_D.LIB
C:\USERS\T12021\DESKTOP\依頼2P\LOO\DXLIB\OGG_STATIC_D.LIB
C:\USERS\T12021\DESKTOP\依頼2P\LOO\DXLIB\VORBIS_STATIC_D.LIB
C:\USERS\T12021\DESKTOP\依頼2P\LOO\DXLIB\VORBISFILE_STATIC_D.LIB
C:\USERS\T12021\DESKTOP\依頼2P\LOO\DXLIB\LIBTHEORA_STATIC_D.LIB
C:\PROGRAM FILES (X86)\MICROSOFT VISUAL STUDIO 10.0\VC\LIB\LIBCMTD.LIB
C:\PROGRAM FILES (X86)\MICROSOFT VISUAL STUDIO 10.0\VC\LIB\OLDNAMES.LIB
C:\PROGRAM FILES (X86)\MICROSOFT VISUAL STUDIO 10.0\VC\LIB\LIBCPMTD.LIB
C:\PROGRAM FILES (X86)\MICROSOFT VISUAL STUDIO 10.0\VC\BIN\CVTRES.EXE
C:\WINDOWS\SYSTEM32\RSAENH.DLL
