^C:\USERS\小川　賢太\DESKTOP\PROGURAM\GAMEPROG\DEBUG\GAMEPROG.EXE.INTERMEDIATE.MANIFEST
C:\USERS\小川　賢太\DESKTOP\PROGURAM\GAMEPROG\DEBUG\GAMEPROG.EXE.EMBED.MANIFEST
^C:\USERS\小川　賢太\DESKTOP\PUROGURAMU まとめ\PROGURAM\GAMEPROG\DEBUG\GAMEPROG.EXE.INTERMEDIATE.MANIFEST
C:\USERS\小川　賢太\DESKTOP\PUROGURAMU まとめ\PROGURAM\GAMEPROG\DEBUG\GAMEPROG.EXE.EMBED.MANIFEST
^C:\USERS\小川　賢太\DESKTOP\PUROGURAMU まとめ\MENYU-\GAMEPROG\DEBUG\GAMEPROG.EXE.INTERMEDIATE.MANIFEST
C:\USERS\小川　賢太\DESKTOP\PUROGURAMU まとめ\MENYU-\GAMEPROG\DEBUG\GAMEPROG.EXE.EMBED.MANIFEST
^C:\USERS\小川　賢太\DESKTOP\PUROGURAMU まとめ\MENYU-\TETORIS\DEBUG\GAMEPROG.EXE.INTERMEDIATE.MANIFEST
C:\USERS\小川　賢太\DESKTOP\PUROGURAMU まとめ\MENYU-\TETORIS\DEBUG\GAMEPROG.EXE.EMBED.MANIFEST
^C:\USERS\小川　賢太\DESKTOP\PUROGURAMU まとめ\依頼\GAMEPROG\DEBUG\GAMEPROG.EXE.INTERMEDIATE.MANIFEST
C:\USERS\小川　賢太\DESKTOP\PUROGURAMU まとめ\依頼\GAMEPROG\DEBUG\GAMEPROG.EXE.EMBED.MANIFEST
^C:\USERS\T12021\DESKTOP\GAMEPROG\DEBUG\GAMEPROG.EXE.INTERMEDIATE.MANIFEST
C:\USERS\T12021\DESKTOP\GAMEPROG\DEBUG\GAMEPROG.EXE.EMBED.MANIFEST
^C:\USERS\T12021\DESKTOP\依頼2P\LOO\DEBUG\GAMEPROG.EXE.INTERMEDIATE.MANIFEST
C:\USERS\T12021\DESKTOP\依頼2P\LOO\DEBUG\GAMEPROG.EXE.EMBED.MANIFEST
